%YAML 1.1
%TAG !u! tag:unity3d.com,2011:
--- !u!74 &7400000
AnimationClip:
  m_ObjectHideFlags: 0
  m_CorrespondingSourceObject: {fileID: 0}
  m_PrefabInstance: {fileID: 0}
  m_PrefabAsset: {fileID: 0}
  m_Name: Player_Dead
  serializedVersion: 6
  m_Legacy: 0
  m_Compressed: 0
  m_UseHighQualityCurve: 1
  m_RotationCurves: []
  m_CompressedRotationCurves: []
  m_EulerCurves: []
  m_PositionCurves: []
  m_ScaleCurves: []
  m_FloatCurves: []
  m_PPtrCurves:
  - curve:
    - time: 0
      value: {fileID: 21300000, guid: d67c1c0b3a311c74787c0166081830ab, type: 3}
    - time: 0.083333336
      value: {fileID: 21300000, guid: ab1f5327b48e7bf4696cbaf426e4c4e4, type: 3}
    - time: 0.16666667
      value: {fileID: 21300000, guid: 515b0190d03647c4c9c6f8b0ccdea3d8, type: 3}
    - time: 0.25
      value: {fileID: 21300000, guid: 845cb311b7a23ef46b4cda87575b0915, type: 3}
    - time: 0.41666666
      value: {fileID: 21300000, guid: 7d4b094d14ebc3e438b135ca01360df2, type: 3}
    - time: 0.6666667
      value: {fileID: 21300000, guid: e0a42e845dbd04e448af9a1a6dafccc9, type: 3}
    - time: 0.75
      value: {fileID: 21300000, guid: 0bb6493861cd3054aa6c04168269dbcd, type: 3}
    - time: 1
      value: {fileID: 21300000, guid: 0bb6493861cd3054aa6c04168269dbcd, type: 3}
    attribute: m_Sprite
    path: 
    classID: 212
    script: {fileID: 0}
  m_SampleRate: 60
  m_WrapMode: 0
  m_Bounds:
    m_Center: {x: 0, y: 0, z: 0}
    m_Extent: {x: 0, y: 0, z: 0}
  m_ClipBindingConstant:
    genericBindings:
    - serializedVersion: 2
      path: 0
      attribute: 0
      script: {fileID: 0}
      typeID: 212
      customType: 23
      isPPtrCurve: 1
    pptrCurveMapping:
    - {fileID: 21300000, guid: d67c1c0b3a311c74787c0166081830ab, type: 3}
    - {fileID: 21300000, guid: ab1f5327b48e7bf4696cbaf426e4c4e4, type: 3}
    - {fileID: 21300000, guid: 515b0190d03647c4c9c6f8b0ccdea3d8, type: 3}
    - {fileID: 21300000, guid: 845cb311b7a23ef46b4cda87575b0915, type: 3}
    - {fileID: 21300000, guid: 7d4b094d14ebc3e438b135ca01360df2, type: 3}
    - {fileID: 21300000, guid: e0a42e845dbd04e448af9a1a6dafccc9, type: 3}
    - {fileID: 21300000, guid: 0bb6493861cd3054aa6c04168269dbcd, type: 3}
    - {fileID: 21300000, guid: 0bb6493861cd3054aa6c04168269dbcd, type: 3}
  m_AnimationClipSettings:
    serializedVersion: 2
    m_AdditiveReferencePoseClip: {fileID: 0}
    m_AdditiveReferencePoseTime: 0
    m_StartTime: 0
    m_StopTime: 1.0166667
    m_OrientationOffsetY: 0
    m_Level: 0
    m_CycleOffset: 0
    m_HasAdditiveReferencePose: 0
    m_LoopTime: 0
    m_LoopBlend: 0
    m_LoopBlendOrientation: 0
    m_LoopBlendPositionY: 0
    m_LoopBlendPositionXZ: 0
    m_KeepOriginalOrientation: 0
    m_KeepOriginalPositionY: 1
    m_KeepOriginalPositionXZ: 0
    m_HeightFromFeet: 0
    m_Mirror: 0
  m_EditorCurves: []
  m_EulerEditorCurves: []
  m_HasGenericRootTransform: 0
  m_HasMotionFloatCurves: 0
  m_Events:
  - time: 0
    functionName: PlayDeathSound
    data: 
    objectReferenceParameter: {fileID: 0}
    floatParameter: 0
    intParameter: 0
    messageOptions: 0
