%YAML 1.1
%TAG !u! tag:unity3d.com,2011:
--- !u!74 &7400000
AnimationClip:
  m_ObjectHideFlags: 0
  m_CorrespondingSourceObject: {fileID: 0}
  m_PrefabInstance: {fileID: 0}
  m_PrefabAsset: {fileID: 0}
  m_Name: WorldsTableAnim
  serializedVersion: 6
  m_Legacy: 0
  m_Compressed: 0
  m_UseHighQualityCurve: 1
  m_RotationCurves: []
  m_CompressedRotationCurves: []
  m_EulerCurves: []
  m_PositionCurves: []
  m_ScaleCurves: []
  m_FloatCurves: []
  m_PPtrCurves:
  - curve:
    - time: 0
      value: {fileID: 21300000, guid: b97752deb1a052946a4d7659ce8ba5ab, type: 3}
    - time: 0.06666667
      value: {fileID: 21300000, guid: 8aaaeca4c507ca34589532c3e992d020, type: 3}
    - time: 0.13333334
      value: {fileID: 21300000, guid: d6c934363a2716f42b1fed885f864aaf, type: 3}
    - time: 0.2
      value: {fileID: 21300000, guid: da05c1ff15e189c4a950ceb3eddab72e, type: 3}
    - time: 0.26666668
      value: {fileID: 21300000, guid: e43a2bc55341a7f49af9b7640f2df9d5, type: 3}
    - time: 0.33333334
      value: {fileID: 21300000, guid: c6842ffd752fb9b4c8fcd7d89194c858, type: 3}
    - time: 0.4
      value: {fileID: 21300000, guid: 89203cc5556c14f4aa54416ea9d64f47, type: 3}
    - time: 0.46666667
      value: {fileID: 21300000, guid: 5458fa3dbe34cf3458204aa8739a94d9, type: 3}
    - time: 0.53333336
      value: {fileID: 21300000, guid: 3e138428d5d81e14c87ebcb762ae754b, type: 3}
    - time: 0.6
      value: {fileID: 21300000, guid: 090c4152a876bb24485ed27b4c852f61, type: 3}
    - time: 0.6666667
      value: {fileID: 21300000, guid: 458c7e14090b7bb4e8570f156c46d53e, type: 3}
    - time: 0.73333335
      value: {fileID: 21300000, guid: d36c54b934e2ba84d9376503c7224766, type: 3}
    - time: 0.8
      value: {fileID: 21300000, guid: b97752deb1a052946a4d7659ce8ba5ab, type: 3}
    attribute: m_Sprite
    path: 
    classID: 212
    script: {fileID: 0}
  m_SampleRate: 60
  m_WrapMode: 0
  m_Bounds:
    m_Center: {x: 0, y: 0, z: 0}
    m_Extent: {x: 0, y: 0, z: 0}
  m_ClipBindingConstant:
    genericBindings:
    - serializedVersion: 2
      path: 0
      attribute: 0
      script: {fileID: 0}
      typeID: 212
      customType: 23
      isPPtrCurve: 1
    pptrCurveMapping:
    - {fileID: 21300000, guid: b97752deb1a052946a4d7659ce8ba5ab, type: 3}
    - {fileID: 21300000, guid: 8aaaeca4c507ca34589532c3e992d020, type: 3}
    - {fileID: 21300000, guid: d6c934363a2716f42b1fed885f864aaf, type: 3}
    - {fileID: 21300000, guid: da05c1ff15e189c4a950ceb3eddab72e, type: 3}
    - {fileID: 21300000, guid: e43a2bc55341a7f49af9b7640f2df9d5, type: 3}
    - {fileID: 21300000, guid: c6842ffd752fb9b4c8fcd7d89194c858, type: 3}
    - {fileID: 21300000, guid: 89203cc5556c14f4aa54416ea9d64f47, type: 3}
    - {fileID: 21300000, guid: 5458fa3dbe34cf3458204aa8739a94d9, type: 3}
    - {fileID: 21300000, guid: 3e138428d5d81e14c87ebcb762ae754b, type: 3}
    - {fileID: 21300000, guid: 090c4152a876bb24485ed27b4c852f61, type: 3}
    - {fileID: 21300000, guid: 458c7e14090b7bb4e8570f156c46d53e, type: 3}
    - {fileID: 21300000, guid: d36c54b934e2ba84d9376503c7224766, type: 3}
    - {fileID: 21300000, guid: b97752deb1a052946a4d7659ce8ba5ab, type: 3}
  m_AnimationClipSettings:
    serializedVersion: 2
    m_AdditiveReferencePoseClip: {fileID: 0}
    m_AdditiveReferencePoseTime: 0
    m_StartTime: 0
    m_StopTime: 0.81666666
    m_OrientationOffsetY: 0
    m_Level: 0
    m_CycleOffset: 0
    m_HasAdditiveReferencePose: 0
    m_LoopTime: 1
    m_LoopBlend: 0
    m_LoopBlendOrientation: 0
    m_LoopBlendPositionY: 0
    m_LoopBlendPositionXZ: 0
    m_KeepOriginalOrientation: 0
    m_KeepOriginalPositionY: 1
    m_KeepOriginalPositionXZ: 0
    m_HeightFromFeet: 0
    m_Mirror: 0
  m_EditorCurves: []
  m_EulerEditorCurves: []
  m_HasGenericRootTransform: 0
  m_HasMotionFloatCurves: 0
  m_Events: []
